Introduction to importing data, plotting with ggplot, and statistical tests
…
When we read in the data, we give it the name ice_extent so that we can refer to it later. We tell the read_csv function where to find the file by providing it with the path to the file. Here we are using a relative path that should work on your computer if you have set up the project directory structure correctly and have included the appropriate line in the *_quarto.yml* file. That line tells R to treat the watershed_R_Intro project directory as the root directory, so that we can just refer to the file’s location using that directory as our starting point. Within that directory the file is in the raw_data directory, so we specify the path starting with the raw_data directory.

The code we use to import the data is pretty simple because the data set is itself very simple. For more complicated data we often need to give the read_csv function additional information in order to have it read the data in correctly. Don’t forget that you can get help using the read_csv function by entering ?read_csv into the R console.

Let’s look at the ice_extent object we created. As we learned in tutorial 1, we can get R to print information about the object by simply typing its name (and running the code by rendering the document).

ice_extent

# A tibble: 43 × 8
    ...1  year month `data-type` hemisphere extent  area  rank
   <dbl> <dbl> <dbl> <chr>       <chr>       <dbl> <dbl> <dbl>
 1     0  1979     9 Goddard     N            7.05  4.58  33  
 2     1  1980     9 Goddard     N            7.67  4.87  43  
 3     2  1981     9 Goddard     N            7.14  4.44  34.5
 4     3  1982     9 Goddard     N            7.3   4.43  37  
 5     4  1983     9 Goddard     N            7.39  4.7   39  
 6     5  1984     9 Goddard     N            6.81  4.11  31  
 7     6  1985     9 Goddard     N            6.7   4.23  29  
 8     7  1986     9 Goddard     N            7.41  4.72  40  
 9     8  1987     9 Goddard     N            7.28  5.64  36  
10     9  1988     9 Goddard     N            7.37  5.36  38  
# ℹ 33 more rows
…
