Exploring Lake Erie Microbiome Data
…
library(lubridate)

The Erie metadata

The first file that we will import from the Lake Erie data set is the one containing the metadata. There were multiple water samples collected for the project. The metadata file has a row for each sample and a column for each variable in the metadata. These include things like the SampleID (a label that uniquely identifies each sample), the date that the sample was collected, various physical and chemical meausurements, etc.

We will use the read_csv command like we did in Tutorial 3. This time we surround the whole command in an extra set of parentheses. This is a shortcut to get R to execute the command and display the results. We also provide the command with the additional argument col_types. This allows us to specify the data type for each column. Here, c denotes character, T is for datetime, and d is for double (a numeric data type).

After you run the code, look at the variables using the viewer in RStudio by clicking on the name of the erie_meta object in the Environment tab. Are any of the variables similar to the ones in the Macatawa watershed metadata that you worked with last semester?

# you will need different column types for the watershed metadata"
col_types = "cccccccccddddddddddddddddddddddd"
(erie_meta <- read_csv("raw_data/habs_metadata_cleaned.csv", col_types = col_types))

# A tibble: 56 × 32
   SampleID  Date  Station  Shore Fraction Type  Samplenum Date_year Month  Days
   <chr>     <chr> <chr>    <chr> <chr>    <chr> <chr>     <chr>     <chr> <dbl>
 1 E0010_CNA 6/16  nearsho… near… CNA      samp… E0010     6/16/14   June     20
 2 E0012_CNA 6/16  nearsho… near… CNA      samp… E0012     6/16/14   June     20
 3 E0014_CNA 6/16  offshore offs… CNA      samp… E0014     6/16/14   June     20
 4 E0016_CNA 6/30  nearsho… near… CNA      samp… E0016     6/30/14   June     34
 5 E0018_CNA 6/30  nearsho… near… CNA      samp… E0018     6/30/14   June     34
 6 E0020_CNA 6/30  offshore offs… CNA      samp… E0020     6/30/14   June     34
 7 E0022_CNA 7/8   nearsho… near… CNA      samp… E0022     7/8/14    July     42
 8 E0024_CNA 7/8   nearsho… near… CNA      samp… E0024     7/8/14    July     42
 9 E0026_CNA 7/8   offshore offs… CNA      samp… E0026     7/8/14    July     42
10 E0028_CNA 7/14  nearsho… near… CNA      samp… E0028     7/14/14   July     48
# ℹ 46 more rows
# ℹ 22 more variables: pH <dbl>, SpCond <dbl>, StationDepth <dbl>,
#   Secchi <dbl>, Temp <dbl>, Turbidity <dbl>, ParMC <dbl>, DissMC <dbl>,
#   Phycocyanin <dbl>, Chla <dbl>, DOC <dbl>, SRP <dbl>, TP <dbl>, TDP <dbl>,
#   POC <dbl>, PON <dbl>, PP <dbl>, N.P <dbl>, Nitrate <dbl>, Ammonia <dbl>,
#   H2O2 <dbl>, CDOM <dbl>
…
col_types = c("dc",rep("i",countOtuStr)) %>% str_flatten() #single string of column types

Now we read in the data using vroom. We also drop the variables we created just for the column specification. After we read in the data we immediately use the select command to drop the empty column (actually to select all of the columns that are not empty).

erie <- vroom(shared.path, col_types = col_types) %>% #read in the data
  select(where(~!all(is.na(.x))))

New names:
• `` -> `...19660`

rm(list = c("col_types", "vl", "countOtuStr"))
erie

# A tibble: 345 × 19,659
   label Group     numOtus Otu00001 Otu00002 Otu00003 Otu00004 Otu00005 Otu00006
   <dbl> <chr>       <int>    <int>    <int>    <int>    <int>    <int>    <int>
 1  0.03 E0004_10…   19656        0        1        0        1        0        0
 2  0.03 E0004_22…   19656      149      727     1467      624        1        7
 3  0.03 E0004_3NA   19656    14750      556      378      204       11        0
 4  0.03 E0004_53…   19656    29333       87       39       33        3        0
 5  0.03 E0004_CNA   19656     5623     1523      286     1067        0        6
 6  0.03 E0005_10…   19656     6726      779       87      235       10        1
 7  0.03 E0005_22…   19656       68     1981      204      471        0        1
 8  0.03 E0005_3NA   19656     1822      256      502       89        0        0
 9  0.03 E0005_53…   19656     7707      240       72       43        0        0
10  0.03 E0005_CNA   19656      439     2210      290      677        1        0
# ℹ 335 more rows
# ℹ 19,650 more variables: Otu00007 <int>, Otu00008 <int>, Otu00009 <int>,
#   Otu00010 <int>, Otu00011 <int>, Otu00012 <int>, Otu00013 <int>,
#   Otu00014 <int>, Otu00015 <int>, Otu00016 <int>, Otu00017 <int>,
#   Otu00018 <int>, Otu00019 <int>, Otu00020 <int>, Otu00021 <int>,
#   Otu00022 <int>, Otu00023 <int>, Otu00024 <int>, Otu00025 <int>,
#   Otu00026 <int>, Otu00027 <int>, Otu00028 <int>, Otu00029 <int>, …
…
Finally, we import and explore the taxonomy file. If we open the file in a text editor we see that it has tab separated columns, too. This time there is no extra column at the end. We simply read the data in using the read_tsv command.

(erie_tax <- read_tsv("raw_data/chabs-silva.taxonomy"))

Rows: 19656 Columns: 3
── Column specification ────────────────────────────────────────────────────────
Delimiter: "\t"
chr (2): OTU, Taxonomy
dbl (1): Size

ℹ Use `spec()` to retrieve the full column specification for this data.
ℹ Specify the column types or set `show_col_types = FALSE` to quiet this message.

# A tibble: 19,656 × 3
   OTU         Size Taxonomy                                                    
   <chr>      <dbl> <chr>                                                       
 1 Otu00001 2761777 Bacteria(100);Cyanobacteria(100);Chloroplast(100);unclassif…
 2 Otu00002  280694 Bacteria(100);Proteobacteria(100);Betaproteobacteria(100);B…
 3 Otu00003  267946 Bacteria(100);Cyanobacteria(100);Chloroplast(100);unclassif…
 4 Otu00004  564953 Bacteria(100);Actinobacteria(100);Actinobacteria(100);Frank…
 5 Otu00005  388677 Bacteria(100);Cyanobacteria(100);Cyanobacteria(100);Subsect…
 6 Otu00006  447037 Bacteria(100);Actinobacteria(100);Actinobacteria(100);Frank…
 7 Otu00007  134495 Bacteria(100);Cyanobacteria(100);Cyanobacteria(100);Subsect…
 8 Otu00008  143655 Bacteria(100);Bacteroidetes(100);Sphingobacteriia(100);Sphi…
 9 Otu00009  419716 Bacteria(100);Cyanobacteria(100);Chloroplast(100);unclassif…
10 Otu00010  147682 Bacteria(100);Actinobacteria(100);Actinobacteria(100);Frank…
# ℹ 19,646 more rows
…
Do not worry about understanding the details of the following code at this point. The taxonomy is split at the semicolons, then the bootstrap values are removed, using regular expressions to identify where they occur.

tax_levels <- c("Kingdom", "Phylum", "Class",
                "Order", "Family", "Genus", "Species")

erie_tax <- erie_tax %>%
  separate(Taxonomy, tax_levels, sep = ";", extra = "drop") %>%
  mutate(across(all_of(tax_levels), ~ str_remove(.x, "(\\(\\d{1,3}\\))$")))
# remove bootstrap value - even works if parentheses in name for some reason
# looks for 1-3 digits \\d{1,3}
# between parentheses \\(xxx\\)
# at end of string (xxx)$
erie_tax

# A tibble: 19,656 × 9
   OTU         Size Kingdom  Phylum         Class     Order Family Genus Species
   <chr>      <dbl> <chr>    <chr>          <chr>     <chr> <chr>  <chr> <chr>  
 1 Otu00001 2761777 Bacteria Cyanobacteria  Chloropl… uncl… uncla… uncl… ""     
 2 Otu00002  280694 Bacteria Proteobacteria Betaprot… Burk… Comam… Limn… ""     
 3 Otu00003  267946 Bacteria Cyanobacteria  Chloropl… uncl… uncla… uncl… ""     
 4 Otu00004  564953 Bacteria Actinobacteria Actinoba… Fran… Spori… hgcI… ""     
 5 Otu00005  388677 Bacteria Cyanobacteria  Cyanobac… Subs… Famil… Micr… ""     
 6 Otu00006  447037 Bacteria Actinobacteria Actinoba… Fran… Spori… hgcI… ""     
 7 Otu00007  134495 Bacteria Cyanobacteria  Cyanobac… Subs… Famil… Syne… ""     
 8 Otu00008  143655 Bacteria Bacteroidetes  Sphingob… Sphi… Chiti… Sedi… ""     
 9 Otu00009  419716 Bacteria Cyanobacteria  Chloropl… uncl… uncla… uncl… ""     
10 Otu00010  147682 Bacteria Actinobacteria Actinoba… Fran… Spori… uncl… ""     
# ℹ 19,646 more rows
…
Now we use the list we just made to remove OTUs that represent Eukaryotes, Archaea, chloroplasts, mitochondria from the erie data. Since OTUs correspond with columns in the erie data we use the select command (to select columns) instead of the filter command (to filter rows). We want to keep the columns whose names do not (! means ‘not’) start with the string “Otu” or (| means ‘or’) whose names are listed in the erie_otus vector.

erie <- erie %>%
  select(!starts_with("Otu") | all_of(erie_otus))

Counts per sample

Now that we have read in and cleaned all three data sets, we will perform a simple analysis of the samples. We will count the total number of sequences that were read (and assigned to an OTU) in each sample. Since the reads are counted in the shared file, we use the erie tibble to generate the summary count data. We use the mutate command to create a new column that sums the reads accross all of the OTU columns for each row. Then we select just the SampleID and the column we just created (reads) since that is all we need for our summary.

erie_sums <- erie %>%
  mutate(reads = rowSums(across(starts_with("Otu"))) %>% as.integer()) %>%
  select(SampleID, reads)
erie_sums

# A tibble: 56 × 2
   SampleID  reads
   <chr>     <int>
 1 E0010_CNA 28582
 2 E0012_CNA 23972
 3 E0014_CNA 25082
 4 E0016_CNA 21631
 5 E0018_CNA 28545
 6 E0020_CNA 28204
 7 E0022_CNA 29449
 8 E0024_CNA 28831
 9 E0026_CNA 47206
10 E0028_CNA 25905
# ℹ 46 more rows
…
