Erie Data: Unconstrained Ordination
…
erie <- erie %>%
  pivot_longer(cols = starts_with("Otu"),
               names_to = "OTU",
               values_to = "Abundance") %>%
  group_by(SampleID)

Scale the data to get relative abundances, and remove rows with relative abundance below 0.005%.

erie <- erie %>%
  mutate(Rel_Abundance = Abundance/sum(Abundance)) %>%
  filter(Rel_Abundance > 5e-5)
erie

# A tibble: 27,902 × 6
# Groups:   SampleID [56]
   label SampleID  numOtus OTU      Abundance Rel_Abundance
   <dbl> <chr>       <int> <chr>        <int>         <dbl>
 1  0.03 E0010_CNA   19656 Otu00002      1271      0.0445  
 2  0.03 E0010_CNA   19656 Otu00004      3264      0.114   
 3  0.03 E0010_CNA   19656 Otu00005         3      0.000105
 4  0.03 E0010_CNA   19656 Otu00006        41      0.00143 
 5  0.03 E0010_CNA   19656 Otu00007       110      0.00385 
 6  0.03 E0010_CNA   19656 Otu00008      1351      0.0473  
 7  0.03 E0010_CNA   19656 Otu00010      1956      0.0684  
 8  0.03 E0010_CNA   19656 Otu00011      3162      0.111   
 9  0.03 E0010_CNA   19656 Otu00012        48      0.00168 
10  0.03 E0010_CNA   19656 Otu00013       139      0.00486 
# ℹ 27,892 more rows
…
erie_tax <- erie_tax %>% semi_join(erie, by = "OTU") #filtering join
nrow(erie_tax)

[1] 4862

Now we pivot back to wide format (one row per sample). The command will insert zeros when there are missing values (OTUs that were filtered out for some samples but not others). The OTUs that we dropped from all samples will not be in the resulting data frame. We drop the abundances and proceed with only the relative abundances.

erie <- erie %>%
  ungroup %>%
  select(-c(Abundance)) %>%
  pivot_wider(names_from = OTU, values_from = Rel_Abundance, values_fill = 0)
erie

# A tibble: 56 × 4,865
   label SampleID  numOtus Otu00002 Otu00004 Otu00005 Otu00006 Otu00007 Otu00008
   <dbl> <chr>       <int>    <dbl>    <dbl>    <dbl>    <dbl>    <dbl>    <dbl>
 1  0.03 E0010_CNA   19656   0.0445   0.114  0.000105 0.00143   0.00385   0.0473
 2  0.03 E0012_CNA   19656   0.0280   0.0948 0.000375 0.00296   0.0325    0.0476
 3  0.03 E0014_CNA   19656   0.0578   0.115  0.000199 0.000598  0.0113    0.0315
 4  0.03 E0016_CNA   19656   0.0525   0.0877 0        0.00943   0.0427    0.0328
 5  0.03 E0018_CNA   19656   0.0454   0.0942 0        0.00925   0.0596    0.0465
 6  0.03 E0020_CNA   19656   0.0439   0.101  0.00411  0.0154    0.0407    0.0518
 7  0.03 E0022_CNA   19656   0.0455   0.104  0.00204  0.0216    0.0344    0.0482
 8  0.03 E0024_CNA   19656   0.0401   0.0772 0.000243 0.0224    0.0318    0.0445
 9  0.03 E0026_CNA   19656   0.0449   0.0905 0.00258  0.0280    0.0145    0.0379
10  0.03 E0028_CNA   19656   0.0340   0.0766 0.0164   0.0696    0.0335    0.0286
# ℹ 46 more rows
# ℹ 4,856 more variables: Otu00010 <dbl>, Otu00011 <dbl>, Otu00012 <dbl>,
#   Otu00013 <dbl>, Otu00015 <dbl>, Otu00016 <dbl>, Otu00017 <dbl>,
#   Otu00018 <dbl>, Otu00019 <dbl>, Otu00023 <dbl>, Otu00025 <dbl>,
#   Otu00026 <dbl>, Otu00027 <dbl>, Otu00028 <dbl>, Otu00029 <dbl>,
#   Otu00031 <dbl>, Otu00033 <dbl>, Otu00034 <dbl>, Otu00035 <dbl>,
#   Otu00036 <dbl>, Otu00038 <dbl>, Otu00039 <dbl>, Otu00040 <dbl>, …
…
Now, performing the PCoA is straightforward. We just use the pcoa command from the ape package.

erie_pcoa <- erie_dist %>% pcoa()

We will plot our data using the first two principal coordinates. The following code creates a tibble with the coordinates of each sample along the two first two PCoA axes.

erie_pcoa_tib <- erie_pcoa %>%
  pluck("vectors") %>%
  .[,1:2] %>% 
  as_tibble(rownames = "SampleID") %>%
  rename( pcoa.1 = Axis.1, pcoa.2 = Axis.2)
erie_pcoa_tib

# A tibble: 56 × 3
   SampleID  pcoa.1   pcoa.2
   <chr>      <dbl>    <dbl>
 1 E0010_CNA -0.336  0.00137
 2 E0012_CNA -0.276 -0.0670 
 3 E0014_CNA -0.334 -0.00544
 4 E0016_CNA -0.271 -0.108  
 5 E0018_CNA -0.247 -0.133  
 6 E0020_CNA -0.175 -0.165  
 7 E0022_CNA -0.236 -0.109  
 8 E0024_CNA -0.169 -0.180  
 9 E0026_CNA -0.191 -0.136  
10 E0028_CNA -0.133 -0.135  
# ℹ 46 more rows

We will join this tibble with the Erie metadata, so that we can use variables in the metadata in the PCoA plot.

erie_meta <- erie_meta %>%
  left_join(erie_pcoa_tib)

Joining with `by = join_by(SampleID)`

erie_meta

# A tibble: 56 × 35
   SampleID  Date       Station   Shore Fraction Type  Samplenum Date_year Month
   <chr>     <date>     <chr>     <chr> <chr>    <chr> <chr>     <chr>     <chr>
 1 E0010_CNA 2014-06-16 nearshor… near… CNA      samp… E0010     6/16/14   June 
 2 E0012_CNA 2014-06-16 nearshor… near… CNA      samp… E0012     6/16/14   June 
 3 E0014_CNA 2014-06-16 offshore  offs… CNA      samp… E0014     6/16/14   June 
 4 E0016_CNA 2014-06-30 nearshor… near… CNA      samp… E0016     6/30/14   June 
 5 E0018_CNA 2014-06-30 nearshor… near… CNA      samp… E0018     6/30/14   June 
 6 E0020_CNA 2014-06-30 offshore  offs… CNA      samp… E0020     6/30/14   June 
 7 E0022_CNA 2014-07-08 nearshor… near… CNA      samp… E0022     7/8/14    July 
 8 E0024_CNA 2014-07-08 nearshor… near… CNA      samp… E0024     7/8/14    July 
 9 E0026_CNA 2014-07-08 offshore  offs… CNA      samp… E0026     7/8/14    July 
10 E0028_CNA 2014-07-14 nearshor… near… CNA      samp… E0028     7/14/14   July 
# ℹ 46 more rows
# ℹ 26 more variables: Days <dbl>, pH <dbl>, SpCond <dbl>, StationDepth <dbl>,
#   Secchi <dbl>, Temp <dbl>, Turbidity <dbl>, ParMC <dbl>, DissMC <dbl>,
#   Phycocyanin <dbl>, Chla <dbl>, DOC <dbl>, SRP <dbl>, TP <dbl>, TDP <dbl>,
#   POC <dbl>, PON <dbl>, PP <dbl>, N.P <dbl>, Nitrate <dbl>, Ammonia <dbl>,
#   H2O2 <dbl>, CDOM <dbl>, sequencingDepth <int>, pcoa.1 <dbl>, pcoa.2 <dbl>
…
The stress is 0.128, which is considered acceptable since it is less than 0.2.

Let’s create a tibble with the NMDS coordinates.

erie_nmds_tib <- erie_nmds %>% 
  pluck("points") %>%
  as_tibble(rownames = "SampleID") %>%
  rename(nmds.1 = MDS1, nmds.2 = MDS2)
erie_nmds_tib

# A tibble: 56 × 3
   SampleID  nmds.1  nmds.2
   <chr>      <dbl>   <dbl>
 1 E0010_CNA -0.664 -0.113 
 2 E0012_CNA -0.568 -0.201 
 3 E0014_CNA -0.558 -0.0642
 4 E0016_CNA -0.495 -0.193 
 5 E0018_CNA -0.414 -0.190 
 6 E0020_CNA -0.337 -0.295 
 7 E0022_CNA -0.380 -0.132 
 8 E0024_CNA -0.294 -0.302 
 9 E0026_CNA -0.302 -0.152 
10 E0028_CNA -0.173 -0.123 
# ℹ 46 more rows

Then, we join this into the metadata, too.

erie_meta <- erie_meta %>%
  left_join(erie_nmds_tib)

Joining with `by = join_by(SampleID)`

erie_meta

# A tibble: 56 × 37
   SampleID  Date       Station   Shore Fraction Type  Samplenum Date_year Month
   <chr>     <date>     <chr>     <chr> <chr>    <chr> <chr>     <chr>     <chr>
 1 E0010_CNA 2014-06-16 nearshor… near… CNA      samp… E0010     6/16/14   June 
 2 E0012_CNA 2014-06-16 nearshor… near… CNA      samp… E0012     6/16/14   June 
 3 E0014_CNA 2014-06-16 offshore  offs… CNA      samp… E0014     6/16/14   June 
 4 E0016_CNA 2014-06-30 nearshor… near… CNA      samp… E0016     6/30/14   June 
 5 E0018_CNA 2014-06-30 nearshor… near… CNA      samp… E0018     6/30/14   June 
 6 E0020_CNA 2014-06-30 offshore  offs… CNA      samp… E0020     6/30/14   June 
 7 E0022_CNA 2014-07-08 nearshor… near… CNA      samp… E0022     7/8/14    July 
 8 E0024_CNA 2014-07-08 nearshor… near… CNA      samp… E0024     7/8/14    July 
 9 E0026_CNA 2014-07-08 offshore  offs… CNA      samp… E0026     7/8/14    July 
10 E0028_CNA 2014-07-14 nearshor… near… CNA      samp… E0028     7/14/14   July 
# ℹ 46 more rows
# ℹ 28 more variables: Days <dbl>, pH <dbl>, SpCond <dbl>, StationDepth <dbl>,
#   Secchi <dbl>, Temp <dbl>, Turbidity <dbl>, ParMC <dbl>, DissMC <dbl>,
#   Phycocyanin <dbl>, Chla <dbl>, DOC <dbl>, SRP <dbl>, TP <dbl>, TDP <dbl>,
#   POC <dbl>, PON <dbl>, PP <dbl>, N.P <dbl>, Nitrate <dbl>, Ammonia <dbl>,
#   H2O2 <dbl>, CDOM <dbl>, sequencingDepth <int>, pcoa.1 <dbl>, pcoa.2 <dbl>,
#   nmds.1 <dbl>, nmds.2 <dbl>
…
